<svg width="600" height="600" viewBox="0 0 600 600" fill="none" xmlns="http://www.w3.org/2000/svg">
<path d="M362.939 113.58C331.319 64.05 214.439 34.17 167.609 65.19C120.779 96.21 142.409 166.53 112.709 184.77C83.0093 203.04 14.7293 263.85 32.6093 336.3C57.8093 438.54 31.3793 485.79 69.5093 519.54C124.409 568.14 185.609 528.24 260.339 549.24C335.039 570.24 448.289 587.79 495.269 535.29C530.369 496.05 516.449 443.7 539.369 391.98C567.269 328.98 542.969 266.91 471.869 255.06C400.769 243.21 392.639 160.14 362.939 113.58Z" fill="#FECE2F"/>
<path d="M463.799 349.2C463.799 349.2 470.249 344.1 473.549 346.05C475.409 347.13 477.779 346.59 478.979 344.82L488.219 330.96C488.999 329.79 489.119 328.32 488.549 327.06C487.979 325.83 487.619 323.79 488.549 320.73C488.549 320.7 467.699 346.8 463.799 349.2Z" fill="white"/>
<path d="M337.109 375.45L360.389 359.55C363.749 357.03 367.049 357.72 368.249 359.34C369.719 361.32 369.059 363.81 365.939 365.67L356.399 372C354.869 373.02 354.419 375.03 355.319 376.62C356.489 378.66 355.349 381.27 353.039 381.75L344.039 383.64C340.889 384.3 337.649 382.86 336.059 380.07C335.159 378.45 335.609 376.47 337.109 375.45Z" fill="white"/>
<path d="M467.879 355.17C468.839 355.47 469.859 355.29 470.699 354.75C473.069 353.34 473.579 351.45 472.439 349.95C471.539 348.75 469.019 348.21 466.469 350.13C464.609 351.48 465.119 354.36 467.309 355.02L467.879 355.17Z" fill="white"/>
<path d="M361.499 379.11C362.279 379.35 363.149 379.23 363.809 378.75L364.049 378.6C366.419 377.19 366.929 375.3 365.789 373.8C364.889 372.6 362.369 372.06 359.819 373.98C357.959 375.33 358.469 378.21 360.659 378.87L361.499 379.11Z" fill="white"/>
<path d="M392.309 367.5C392.309 367.5 382.499 389.31 379.709 411.69C376.919 434.1 378.119 446.13 378.119 446.13C378.119 446.13 356.789 448.68 348.059 445.68C348.059 445.68 359.429 419.16 360.569 405.84L371.129 394.89L392.309 367.5Z" fill="white"/>
<path d="M342.929 270.66C342.029 271.74 341.009 272.67 339.899 273.15C333.449 275.97 325.439 278.49 318.299 278.19C308.519 277.8 300.869 273.18 293.069 267.45C288.929 264.42 285.269 261.33 282.149 257.28C280.019 254.52 278.429 251.64 277.439 248.49C269.219 248.22 259.289 248.25 248.099 249C216.299 251.1 170.999 281.1 157.499 334.2C143.999 387.3 173.549 424.8 173.549 424.8C175.799 413.4 185.699 393 208.499 375.9C231.299 358.8 271.139 360.84 271.139 360.84C278.879 379.98 295.679 378.78 311.399 377.88C327.119 376.98 365.249 347.88 365.249 347.88L393.899 329.73C388.589 320.46 354.779 283.5 342.929 270.66Z" fill="white"/>
<path d="M245.789 353.16C245.669 353.16 245.549 353.16 245.429 353.16C243.689 353.13 239.519 352.74 238.619 349.47C237.809 346.47 240.569 343.92 243.689 342.69C244.199 342.48 244.739 342.3 245.279 342.12C244.829 342.09 244.379 342.03 243.929 341.97C242.819 341.85 239.489 341.46 238.499 338.91C237.659 336.75 239.129 334.41 240.989 333.21C243.869 331.38 247.469 331.32 250.349 331.29L269.639 331.08C270.119 331.08 270.539 331.47 270.539 331.98C270.539 332.49 270.149 332.88 269.639 332.88L250.349 333.09C247.679 333.12 244.379 333.15 241.949 334.71C240.719 335.49 239.669 337.02 240.149 338.25C240.539 339.27 241.859 339.9 244.109 340.17C246.959 340.5 249.839 340.62 252.719 340.59C253.589 340.53 254.489 340.5 255.359 340.5C255.839 340.5 256.229 340.89 256.259 341.37C256.259 341.85 255.899 342.27 255.419 342.3C254.549 342.36 253.709 342.39 252.839 342.39C249.929 342.63 247.049 343.29 244.349 344.34C242.069 345.24 239.819 347.1 240.359 348.99C240.959 351.15 244.409 351.36 245.459 351.36C248.279 351.39 251.189 351.06 253.979 350.73C258.659 350.19 263.489 349.62 268.199 350.7C268.679 350.82 268.979 351.3 268.889 351.78C268.769 352.26 268.289 352.56 267.809 352.47C263.399 351.48 258.929 351.99 254.189 352.53C251.459 352.83 248.609 353.16 245.789 353.16Z" fill="#FECE2F"/>
<path d="M303.539 379.92C303.389 379.92 303.239 379.89 303.089 379.8C299.849 377.88 297.509 374.4 296.639 370.26C295.949 366.84 296.249 363 297.509 358.86C298.529 355.53 300.059 353.55 302.159 352.8C304.739 351.87 307.379 353.1 309.179 354.3C312.179 356.34 314.579 359.19 316.049 362.46C317.099 359.46 318.389 356.55 319.859 353.76C320.489 352.56 321.269 351.24 322.619 350.52C324.299 349.62 327.299 349.65 330.209 352.77C330.599 353.19 330.959 353.61 331.319 354.09C331.889 352.95 332.969 352.14 334.379 351.84C336.449 351.39 338.789 352.11 340.169 353.61C342.359 355.98 342.719 359.28 342.929 362.73C342.959 363.24 342.569 363.66 342.089 363.69C341.609 363.72 341.159 363.33 341.129 362.85C340.949 359.73 340.649 356.79 338.849 354.84C337.889 353.82 336.209 353.31 334.739 353.61C334.049 353.76 333.149 354.15 332.819 355.17C332.699 355.53 332.669 355.86 332.699 356.25C333.599 357.93 334.259 359.76 334.559 361.65C334.739 362.28 334.829 362.97 334.769 363.66C334.739 364.14 334.349 364.5 333.869 364.5C333.389 364.5 332.999 364.11 332.969 363.63C332.939 363.09 332.879 362.58 332.789 362.04C332.609 361.35 332.309 360.66 331.979 359.94C331.529 358.92 331.079 357.9 330.929 356.82C330.359 355.83 329.669 354.9 328.919 354.06C327.419 352.47 325.169 351.24 323.489 352.17C322.589 352.65 321.989 353.67 321.479 354.69C319.649 358.14 318.149 361.8 317.009 365.52C316.889 365.91 316.529 366.15 316.139 366.15C315.749 366.15 315.389 365.88 315.269 365.52C314.129 361.65 311.549 358.14 308.189 355.86C307.019 355.08 304.769 353.85 302.789 354.54C301.259 355.08 300.119 356.7 299.249 359.43C298.049 363.27 297.779 366.81 298.409 369.93C299.129 373.53 301.229 376.65 303.989 378.3C304.409 378.54 304.559 379.11 304.319 379.53C304.139 379.77 303.839 379.92 303.539 379.92Z" fill="#FECE2F"/>
<path d="M354.359 332.4C352.499 332.4 350.639 332.19 348.809 331.77C346.169 331.17 344.519 330.03 343.919 328.35C343.229 326.46 344.189 324.45 345.449 323.25C339.059 323.82 332.639 323.49 326.309 322.2C325.139 321.96 323.789 321.63 322.829 320.64C321.239 318.99 321.569 316.38 322.679 314.76C323.819 313.11 325.619 312.21 327.209 311.55C327.419 311.46 327.629 311.37 327.839 311.31C326.129 311.28 324.389 311.25 322.679 311.19C317.729 310.98 316.019 308.64 316.049 306.72C316.079 305.43 316.829 304.35 317.549 303.51C322.949 297.12 331.019 294.33 338.789 291.6C342.119 290.43 345.569 289.23 348.749 287.76C349.199 287.55 349.739 287.76 349.949 288.21C350.159 288.66 349.949 289.2 349.499 289.41C346.259 290.91 342.749 292.14 339.389 293.31C331.469 296.07 323.999 298.68 318.929 304.68C318.389 305.31 317.849 306.03 317.849 306.78C317.849 307.05 317.819 307.92 319.259 308.64C320.159 309.09 321.419 309.36 322.739 309.42C326.639 309.57 330.599 309.6 334.529 309.51C337.109 309.09 339.749 308.94 342.359 309.15C342.839 309.18 343.199 309.57 343.199 310.05C343.199 310.53 342.839 310.92 342.359 310.95C339.809 311.13 337.259 311.25 334.709 311.31C332.369 311.7 330.089 312.36 327.899 313.29C326.549 313.86 325.019 314.61 324.149 315.87C323.429 316.89 323.219 318.54 324.089 319.44C324.689 320.04 325.649 320.28 326.609 320.49C334.379 322.05 342.269 322.17 350.099 320.88C350.549 320.79 350.999 321.09 351.119 321.54C351.239 321.99 350.999 322.47 350.549 322.62C349.169 323.1 347.729 323.61 346.679 324.57C345.839 325.32 345.149 326.64 345.569 327.81C345.959 328.86 347.159 329.64 349.169 330.09C353.249 331.02 357.539 330.81 361.529 329.52C362.009 329.37 362.519 329.64 362.669 330.09C362.819 330.57 362.549 331.08 362.099 331.23C359.609 331.98 356.969 332.4 354.359 332.4Z" fill="#FECE2F"/>
<path d="M153.959 344.7C153.539 344.7 153.149 344.4 153.059 343.95C152.969 343.47 153.299 342.99 153.779 342.9L173.849 339.42C176.069 339.03 178.589 338.61 180.389 337.14C181.949 335.88 182.849 333.36 181.649 331.77C180.719 330.54 178.859 330.21 177.029 329.97C176.009 329.85 174.989 329.7 173.939 329.61C170.099 330.21 166.199 330.6 162.299 330.72C161.879 330.75 161.489 330.45 161.399 330.03C161.309 329.61 161.519 329.19 161.909 329.01C165.719 327.36 170.009 327.42 173.879 327.81C176.159 327.45 178.409 327 180.659 326.46C182.819 325.95 185.279 325.26 186.959 323.67C188.399 322.29 189.209 319.8 188.009 318.12C187.139 316.92 185.489 316.41 183.989 316.11C175.289 314.25 165.929 315.87 158.369 320.55C157.949 320.82 157.379 320.67 157.139 320.25C156.869 319.83 157.019 319.26 157.439 319.02C165.419 314.1 175.229 312.42 184.379 314.34C186.119 314.7 188.249 315.36 189.479 317.07C191.249 319.56 190.229 323.04 188.219 324.96C186.239 326.85 183.509 327.63 181.109 328.2C180.569 328.32 180.029 328.44 179.489 328.56C180.899 328.89 182.219 329.49 183.119 330.69C184.979 333.12 183.809 336.72 181.589 338.52C179.429 340.29 176.549 340.77 174.239 341.19L154.169 344.67C154.079 344.7 154.019 344.7 153.959 344.7Z" fill="#FECE2F"/>
<path d="M271.259 301.62C268.349 301.62 265.679 300.3 264.329 298.14C263.099 296.13 262.889 293.46 263.819 290.79C264.179 289.71 264.719 288.72 265.349 287.79C261.749 289.17 258.089 290.25 254.369 291.03C252.539 291.39 250.439 291.75 248.339 291.27C245.939 290.7 244.109 289.02 243.659 286.98C243.179 284.82 244.199 282.45 246.599 280.17C248.579 278.31 250.859 276.78 253.319 275.64C252.689 275.58 252.029 275.49 251.399 275.37C250.679 275.25 249.869 275.07 249.179 274.56C247.889 273.63 247.139 271.44 248.129 269.34C248.909 267.69 250.469 266.64 251.699 265.89C258.089 262.08 265.769 261.18 272.549 260.37C273.029 260.31 273.479 260.67 273.539 261.15C273.599 261.63 273.239 262.08 272.759 262.14C266.159 262.92 258.659 263.82 252.599 267.42C251.579 268.02 250.319 268.89 249.719 270.12C249.269 271.05 249.299 272.46 250.169 273.09C250.559 273.39 251.159 273.51 251.669 273.6C254.339 274.08 257.039 274.11 259.709 273.69C259.739 273.69 259.769 273.69 259.799 273.69C260.279 273.6 260.759 273.96 260.819 274.44C260.909 274.92 260.549 275.4 260.069 275.46C260.039 275.46 260.009 275.46 259.979 275.49C255.449 276.21 251.129 278.34 247.799 281.49C246.449 282.75 244.949 284.67 245.369 286.62C245.699 288.18 247.289 289.2 248.699 289.53C250.439 289.92 252.329 289.62 253.949 289.26C259.139 288.18 264.239 286.5 269.129 284.16C269.729 283.8 270.389 283.47 271.049 283.23C271.499 283.05 272.009 283.26 272.189 283.71C272.369 284.16 272.189 284.67 271.769 284.88C271.169 285.18 270.569 285.48 269.969 285.78C267.869 287.07 266.249 289.05 265.439 291.39C264.689 293.52 264.839 295.71 265.769 297.21C266.969 299.13 269.669 300.18 272.339 299.76C274.529 299.43 276.779 298.29 279.419 296.16C284.939 291.69 289.259 285.54 291.599 278.82C291.749 278.34 292.289 278.1 292.739 278.28C293.219 278.43 293.459 278.97 293.279 279.42C290.849 286.44 286.319 292.89 280.529 297.57C278.699 299.04 275.909 301.05 272.579 301.56C272.219 301.59 271.739 301.62 271.259 301.62Z" fill="#FECE2F"/>
<path d="M351.326 197.711C354.991 197.241 357.792 195.541 357.584 193.914C357.375 192.287 354.235 191.349 350.57 191.819C346.905 192.289 344.103 193.989 344.312 195.616C344.521 197.243 347.661 198.181 351.326 197.711Z" fill="white"/>
<path d="M346.769 208.2L355.109 216.75C355.109 216.75 350.249 219.3 346.859 215.85C343.469 212.4 346.769 208.2 346.769 208.2Z" fill="white"/>
<path d="M351.299 218.55C349.589 218.55 347.729 218.04 346.199 216.48C343.079 213.3 344.759 209.31 346.049 207.63C346.199 207.42 346.439 207.3 346.709 207.3C346.979 207.27 347.219 207.39 347.399 207.57L355.739 216.12C355.949 216.33 356.039 216.6 355.979 216.9C355.919 217.17 355.769 217.41 355.499 217.56C354.569 218.04 353.009 218.55 351.299 218.55ZM346.919 209.64C346.259 210.9 345.539 213.21 347.489 215.22C348.659 216.42 350.219 216.93 352.079 216.72C352.619 216.66 353.099 216.54 353.519 216.42L346.919 209.64Z" fill="#1A1A1A"/>
<path d="M388.499 354.51C393.006 354.51 396.659 350.816 396.659 346.26C396.659 341.704 393.006 338.01 388.499 338.01C383.993 338.01 380.339 341.704 380.339 346.26C380.339 350.816 383.993 354.51 388.499 354.51Z" fill="white"/>
<path d="M388.499 348.27C389.609 348.27 390.509 347.37 390.509 346.26C390.509 345.15 389.609 344.25 388.499 344.25C387.389 344.25 386.489 345.15 386.489 346.26C386.489 347.37 387.389 348.27 388.499 348.27Z" fill="#1A1A1A"/>
<path d="M388.499 349.17C386.909 349.17 385.589 347.85 385.589 346.26C385.589 344.67 386.879 343.35 388.499 343.35C390.089 343.35 391.409 344.67 391.409 346.26C391.409 347.85 390.089 349.17 388.499 349.17ZM388.499 345.12C387.899 345.12 387.389 345.63 387.389 346.23C387.389 346.83 387.869 347.34 388.499 347.34C389.099 347.34 389.609 346.83 389.609 346.23C389.609 345.63 389.099 345.12 388.499 345.12Z" fill="#1A1A1A"/>
<path d="M388.619 345C388.079 344.97 387.719 344.55 387.719 344.07L387.839 340.86C387.869 340.35 388.259 339.96 388.769 339.99C389.279 340.02 389.639 340.44 389.639 340.92L389.519 344.13C389.489 344.61 389.099 345 388.619 345Z" fill="#1A1A1A"/>
<path d="M297.989 503.31C297.809 503.31 297.599 503.25 297.449 503.13C286.979 494.97 275.429 484.8 263.159 472.83C262.799 472.47 262.799 471.9 263.129 471.57C263.489 471.21 264.059 471.21 264.389 471.54C276.629 483.45 288.119 493.62 298.529 501.72C298.919 502.02 298.979 502.59 298.679 502.98C298.529 503.19 298.259 503.31 297.989 503.31Z" fill="#1A1A1A"/>
<path d="M155.489 344.85C121.019 297.39 97.9792 257.73 108.659 249.99C129.299 235.05 176.729 293.31 176.729 293.31C176.729 293.31 164.579 311.91 162.329 317.58C159.719 324.09 155.489 344.85 155.489 344.85Z" fill="#1A1A1A"/>
<path d="M155.489 345.75C155.219 345.75 154.919 345.63 154.769 345.39C138.719 323.31 126.329 304.53 117.959 289.62C108.509 272.79 104.249 260.88 105.299 254.31C105.659 252.06 106.619 250.38 108.149 249.27C113.129 245.67 119.939 245.79 128.399 249.63C134.969 252.63 142.589 257.94 151.049 265.35C165.389 277.95 177.329 292.59 177.449 292.71C177.689 293.01 177.719 293.43 177.509 293.76C177.389 293.94 165.389 312.36 163.169 317.88C160.619 324.27 156.419 344.79 156.389 345C156.329 345.36 156.059 345.63 155.699 345.69C155.609 345.75 155.549 345.75 155.489 345.75ZM116.609 248.46C113.879 248.46 111.359 249.15 109.199 250.74C108.059 251.58 107.369 252.84 107.069 254.61C105.779 262.8 113.069 284.73 155.039 342.69C156.179 337.29 159.329 322.65 161.489 317.25C163.559 312.06 173.549 296.58 175.619 293.37C173.399 290.7 162.539 277.89 149.819 266.7C139.679 257.79 126.659 248.46 116.609 248.46Z" fill="#1A1A1A"/>
<path d="M229.049 494.7C228.989 494.7 228.899 494.7 228.839 494.67C210.929 490.26 194.159 482.13 179.009 470.46C166.889 461.16 155.789 449.61 145.979 436.11C129.299 413.16 122.069 392.28 122.009 392.07C121.859 391.59 122.099 391.08 122.579 390.93C123.059 390.78 123.569 391.02 123.719 391.5C123.779 391.71 130.949 412.38 147.479 435.12C157.169 448.44 168.179 459.87 180.149 469.08C195.089 480.57 211.619 488.58 229.289 492.93C229.769 493.05 230.069 493.53 229.949 494.01C229.799 494.43 229.439 494.7 229.049 494.7Z" fill="#1A1A1A"/>
<path d="M455.249 433.8C454.979 433.8 454.709 433.68 454.529 433.44C454.229 433.05 454.319 432.48 454.709 432.18C472.559 418.95 485.039 399.39 492.389 385.32C500.369 370.05 504.149 357.78 504.179 357.66C504.329 357.18 504.839 356.91 505.289 357.06C505.769 357.21 506.039 357.72 505.889 358.17C505.859 358.29 502.019 370.74 493.979 386.16C486.539 400.41 473.879 420.21 455.759 433.65C455.609 433.74 455.429 433.8 455.249 433.8Z" fill="#1A1A1A"/>
<path d="M346.259 198.3C347.189 198.57 348.269 198.72 349.439 198.72C350.099 198.72 350.759 198.66 351.419 198.57C351.509 198.57 351.629 198.54 351.719 198.54C351.749 198.54 351.779 198.54 351.839 198.54C351.899 198.54 351.959 198.54 352.019 198.51C352.049 198.51 352.409 198.45 352.949 198.3C355.829 197.64 357.869 196.26 358.349 194.7V194.67C358.379 194.61 358.379 194.55 358.379 194.49C358.409 194.28 358.439 194.1 358.439 193.89C358.409 193.14 358.019 192.51 357.269 192.03C356.129 191.19 354.209 190.74 351.929 190.8C351.449 190.8 350.939 190.86 350.399 190.92C348.509 191.16 346.769 191.73 345.479 192.51C343.979 193.41 343.229 194.55 343.379 195.72C343.529 196.89 344.579 197.79 346.259 198.3ZM346.439 194.07C347.489 193.44 348.959 192.96 350.519 192.75C350.189 193.8 350.009 195.3 350.519 196.89C349.109 197.01 347.759 196.89 346.739 196.59C345.839 196.32 345.239 195.9 345.179 195.51C345.149 195.12 345.629 194.55 346.439 194.07Z" fill="#1A1A1A"/>
<path d="M318.809 205.65L315.239 201.81C315.869 201.21 316.469 200.97 316.529 200.94C317.009 200.76 317.219 200.22 317.039 199.77C316.859 199.32 316.319 199.08 315.869 199.26C314.189 199.92 311.219 202.44 312.179 207.18C312.239 207.6 312.629 207.9 313.049 207.9C313.109 207.9 313.169 207.9 313.199 207.87C313.709 207.78 314.009 207.3 313.919 206.82C313.619 205.32 313.799 204.18 314.189 203.31L317.489 206.85C317.669 207.06 317.909 207.15 318.149 207.15C318.359 207.15 318.569 207.06 318.749 206.91C319.139 206.58 319.139 206.01 318.809 205.65Z" fill="#1A1A1A"/>
<path d="M74.5792 204.18C74.4592 204.18 74.3392 204.15 74.2492 204.12C59.6092 198.21 52.0492 189.42 48.2692 183.09C44.1592 176.19 43.5592 170.76 43.5292 170.52C43.4692 170.04 43.8292 169.59 44.3392 169.53C44.8492 169.47 45.2692 169.83 45.3292 170.34C45.3292 170.4 45.9292 175.68 49.8592 182.28C53.4892 188.34 60.7792 196.77 74.9092 202.47C75.3592 202.65 75.5992 203.19 75.4192 203.64C75.2692 203.97 74.9392 204.18 74.5792 204.18Z" fill="#1A1A1A"/>
<path d="M295.709 133.8C295.619 133.8 295.499 133.77 295.409 133.74C286.799 130.68 280.979 121.35 280.739 120.96C280.469 120.54 280.619 119.97 281.039 119.73C281.459 119.46 282.029 119.61 282.269 120.03C282.329 120.12 287.999 129.21 296.009 132.06C296.489 132.24 296.729 132.75 296.549 133.2C296.429 133.56 296.069 133.8 295.709 133.8Z" fill="#1A1A1A"/>
<path d="M76.7093 75.6C76.4693 75.6 76.2293 75.51 76.0793 75.33C75.7193 74.97 75.7493 74.4 76.1093 74.07C76.4693 73.71 85.0792 65.46 99.3892 62.82C99.8692 62.73 100.349 63.06 100.439 63.54C100.529 64.02 100.199 64.5 99.7192 64.59C85.9792 67.11 77.4593 75.27 77.3993 75.36C77.1593 75.51 76.9193 75.6 76.7093 75.6Z" fill="#1A1A1A"/>
<path d="M344.399 169.5C344.009 169.5 343.649 169.26 343.529 168.87C339.569 155.52 318.149 154.23 317.939 154.2C317.429 154.17 317.069 153.75 317.099 153.24C317.129 152.73 317.549 152.37 318.059 152.4C318.299 152.4 323.789 152.73 329.939 154.8C338.189 157.59 343.469 162.27 345.299 168.33C345.449 168.81 345.179 169.32 344.699 169.44C344.579 169.5 344.489 169.5 344.399 169.5Z" fill="#FECE2F"/>
<path d="M65.5792 166.83C65.1892 166.83 64.8592 166.59 64.7392 166.2C61.3192 155.82 59.9092 145.71 60.5392 136.11C61.0492 128.43 62.8792 121.08 65.9392 114.24C71.1892 102.6 78.2092 96.6302 78.5092 96.3602C78.8992 96.0302 79.4692 96.0902 79.7692 96.4802C80.0992 96.8702 80.0392 97.4402 79.6492 97.7402C79.6192 97.7702 77.8492 99.2702 75.5092 102.12C73.3192 104.76 70.1692 109.17 67.5292 115.05C64.5592 121.68 62.7892 128.82 62.3092 136.26C61.7092 145.59 63.0892 155.46 66.4192 165.6C66.5692 166.08 66.3292 166.59 65.8492 166.74C65.7892 166.83 65.6692 166.83 65.5792 166.83Z" fill="#FECE2F"/>
<path d="M288.509 220.5C288.419 220.5 288.359 220.5 288.269 220.5C272.939 220.38 260.669 212.97 248.789 205.83C231.299 195.3 213.239 184.38 184.169 194.97C183.689 195.15 183.179 194.91 183.029 194.43C182.879 193.95 183.089 193.44 183.569 193.29C213.419 182.43 231.869 193.56 249.719 204.3C261.929 211.65 273.449 218.61 288.269 218.73C288.329 218.73 288.419 218.73 288.479 218.73C300.779 218.73 306.569 210.3 306.629 210.24C306.899 209.82 307.469 209.73 307.889 210C308.309 210.27 308.399 210.84 308.129 211.26C307.889 211.59 301.799 220.5 288.509 220.5Z" fill="#FECE2F"/>
<path d="M509.819 317.64L502.979 315.93C503.339 314.49 503.189 313.32 503.159 313.26C503.099 312.78 502.619 312.45 502.139 312.51C501.659 312.57 501.329 313.05 501.389 313.53C501.389 313.53 501.689 315.66 500.339 317.4C499.319 318.72 497.609 319.53 495.269 319.8C494.789 319.86 494.429 320.31 494.489 320.79C494.549 321.27 494.939 321.6 495.389 321.6C495.419 321.6 495.479 321.6 495.479 321.6C498.329 321.27 500.459 320.22 501.779 318.48C501.989 318.21 502.169 317.91 502.319 317.61L509.399 319.38C509.459 319.41 509.549 319.41 509.609 319.41C509.999 319.41 510.359 319.14 510.479 318.72C510.599 318.24 510.299 317.76 509.819 317.64Z" fill="#1A1A1A"/>
<path d="M526.559 307.74C526.349 307.29 525.989 306.99 525.539 306.84C524.159 306.42 521.999 307.8 518.579 310.08C516.899 311.19 513.539 313.44 512.519 313.38C512.729 312.3 515.309 309.18 517.019 307.08C521.219 301.95 523.919 298.41 523.379 296.1C523.139 295.05 522.539 294.63 522.059 294.48C521.549 294.33 521.039 294.36 520.529 294.54C520.589 294.33 520.589 294.12 520.589 293.94C520.559 293.31 520.289 292.95 520.079 292.74C517.949 290.76 515.219 293.4 510.239 298.23C509.219 299.22 508.079 300.36 506.819 301.53C505.499 302.76 502.769 305.4 500.999 307.11C501.989 301.11 501.719 297 500.219 295.14C499.499 294.24 498.689 294.12 498.299 294.12C497.099 294.12 496.649 295.29 494.309 304.41C493.259 308.49 492.179 312.75 491.249 314.97C490.319 317.25 482.369 328.11 472.199 339C464.999 346.71 451.409 359.97 441.509 362.13C436.109 363.3 430.439 362.49 424.709 359.67C419.759 357.27 414.629 353.31 409.439 347.94C416.849 339.87 418.769 339.6 419.129 339.63C420.419 339.81 422.549 340.83 424.619 341.79C428.819 343.77 433.199 345.81 435.029 343.56C435.419 343.08 435.539 342.51 435.359 341.91C434.849 340.08 430.919 338.04 427.199 336.51C431.549 336.87 436.709 337.29 437.939 337.38C438.539 337.44 439.079 337.47 439.589 337.47C441.569 337.47 442.949 337.05 443.639 336.15C444.449 335.22 444.239 334.23 444.209 334.11C444.149 333.96 444.089 333.81 443.969 333.69C443.219 332.91 442.079 332.25 440.729 331.71C441.089 331.47 441.389 331.14 441.629 330.75C441.899 330.21 442.079 329.31 441.389 328.05C439.469 324.63 426.929 323.37 420.809 322.95C422.279 322.02 424.229 320.76 426.119 319.44C433.739 314.22 433.979 313.08 433.469 312.15C433.289 311.79 432.869 311.31 432.029 311.1C429.659 310.53 423.899 312.6 414.869 317.19C416.669 311.25 416.339 307.71 413.879 306.63C413.639 306.51 413.219 306.42 412.739 306.63C411.899 306.99 410.519 308.31 407.489 315.42C406.139 318.63 404.969 321.75 404.609 322.74C402.929 323.67 401.219 324.66 399.389 325.71C397.679 326.7 395.939 327.72 394.259 328.74C391.259 324.39 386.699 318.63 381.479 312.42C381.449 312.3 381.389 312.21 381.299 312.12C381.119 311.91 380.369 311.07 379.229 309.75C372.809 302.19 365.699 294.21 359.549 287.4C347.819 274.44 337.229 263.22 334.919 260.79C334.889 260.76 334.859 260.7 334.829 260.67L341.519 233.19L342.659 228.6C343.949 228.81 345.239 228.9 346.499 228.9C350.609 228.9 354.449 227.82 357.899 225.72C363.989 221.94 366.239 214.2 364.499 203.34C365.459 203.82 366.329 203.97 367.049 203.97C367.379 203.97 367.709 203.94 367.949 203.88C369.779 203.55 371.189 202.32 371.759 201.24C372.329 200.13 372.209 198.63 371.429 197.55C370.919 196.83 369.659 195.72 367.079 196.2C363.839 196.83 362.429 194.37 362.069 193.59C362.069 193.53 362.039 193.47 362.039 193.38C359.189 184.74 354.599 176.01 349.739 169.89C349.739 168.39 349.589 166.92 349.319 165.51C348.059 159.18 343.319 151.29 327.839 149.7C292.979 146.1 279.539 126 270.689 112.68C270.029 111.72 269.399 110.79 268.799 109.89C259.949 96.9301 245.159 75.2401 197.189 78.3001C177.299 79.5601 166.859 74.7001 156.719 70.0201C149.939 66.8701 143.519 63.8701 134.789 63.0901C125.039 62.2201 113.789 64.2001 99.3593 69.3601C85.1093 74.4601 72.5693 83.1901 63.0893 94.6201C54.2693 105.24 48.2693 117.87 45.7793 131.1C43.7393 141.9 44.1593 152.79 46.9793 162.51C50.0093 172.89 55.5293 181.62 63.3893 188.49C76.2893 199.74 91.7692 205.95 110.669 207.48C127.289 208.83 144.299 206.52 160.769 204.27C168.479 203.22 175.739 202.23 182.879 201.6C204.929 199.71 217.709 206.64 231.269 213.99C241.229 219.39 251.549 225 266.339 228C271.349 229.02 275.939 229.44 280.079 229.44C291.299 229.44 299.399 226.29 304.649 223.14C308.369 220.95 311.099 218.55 312.929 216.63L301.919 249.63C301.109 249.45 286.889 246.51 268.109 246.81C256.829 247.02 246.089 248.37 236.249 250.8C223.919 253.86 212.939 258.66 203.609 265.08C182.789 279.42 166.259 302.49 158.309 328.38C154.109 342.09 152.399 356.04 153.299 369.84C154.259 384.75 158.219 399.09 165.089 412.47C171.959 425.82 180.059 437.25 189.179 446.43C197.639 454.92 207.059 461.55 217.169 466.14C228.239 471.18 240.029 473.7 252.059 473.7C255.989 473.7 259.949 473.43 263.909 472.89L285.239 492.81C285.359 492.93 285.509 493.02 285.689 493.05C285.749 493.05 286.079 493.11 286.619 493.11C289.139 493.11 296.339 491.85 302.429 478.98C306.599 470.16 310.439 469.8 314.849 469.35C317.819 469.05 321.149 468.72 324.779 465.9C329.819 462 328.829 456.72 328.019 452.46C327.239 448.29 326.909 445.65 329.789 444.12C337.229 440.19 348.479 434.25 349.439 419.04C352.979 415.56 356.339 412.11 359.459 408.78C359.459 408.93 359.429 409.05 359.429 409.2C359.009 410.97 358.559 412.74 358.109 414.51C357.149 418.17 356.099 421.74 354.929 425.25C353.789 428.55 352.589 431.85 351.479 434.79C346.289 447.96 339.659 459.87 331.679 470.31C322.169 482.76 310.739 493.23 297.659 501.39C297.539 501.45 297.419 501.54 297.359 501.66C297.149 501.81 296.999 502.05 296.999 502.32C296.999 502.62 297.119 502.92 297.359 503.1C318.299 519.39 334.979 527.58 347.189 527.58C351.929 527.58 355.979 526.35 359.399 523.86C362.009 521.91 363.539 518.97 363.929 515.1C365.129 502.98 354.599 482.1 338.309 464.13C341.849 458.82 345.089 453.18 347.999 447.24C352.739 447.84 357.509 448.11 362.309 448.11C371.549 448.11 380.819 447 390.089 444.87C409.199 440.34 427.379 431.25 444.059 417.78C475.679 392.25 502.739 341.64 511.649 325.02C513.089 322.35 514.229 320.22 514.499 319.89C515.159 319.02 517.049 317.64 519.059 316.2C524.369 312.39 527.489 309.93 526.559 307.74ZM413.339 308.37C414.719 309.27 414.449 312.99 412.589 318.36C410.849 319.26 408.989 320.28 407.039 321.36C409.829 314.01 412.349 309.12 413.339 308.37ZM400.289 327.27C417.269 317.43 428.699 312.15 431.609 312.87C431.609 312.87 431.609 312.87 431.639 312.87C430.379 314.46 423.599 319.17 417.509 322.92C417.089 323.16 416.939 323.73 417.209 324.15C417.329 324.36 417.539 324.51 417.779 324.57C417.839 324.6 417.899 324.6 417.989 324.6C418.049 324.6 423.119 324.84 428.399 325.53C437.699 326.76 439.499 328.35 439.859 328.95C440.039 329.25 440.219 329.67 440.069 329.94C439.859 330.33 438.989 330.63 438.449 330.69C438.299 330.72 438.149 330.78 438.029 330.84C430.529 328.89 419.609 329.19 419.009 329.22C418.499 329.25 418.109 329.64 418.139 330.15C418.169 330.63 418.589 331.05 419.069 331.02C424.289 330.87 438.449 331.23 442.439 334.71C442.409 334.8 442.379 334.89 442.289 334.98C442.049 335.25 441.149 335.88 438.089 335.58C435.929 335.34 421.469 334.23 420.869 334.17C420.389 334.14 419.939 334.5 419.909 335.01C419.909 335.22 419.969 335.4 420.059 335.58C420.179 335.76 420.329 335.88 420.539 335.94C420.599 335.94 423.929 337.05 427.259 338.49C433.109 341.01 433.619 342.24 433.649 342.39C432.719 343.56 428.309 341.49 425.399 340.11C423.119 339.06 420.959 338.04 419.399 337.8C417.839 337.59 414.749 338.94 404.459 350.73C401.909 349.62 399.569 348.15 397.529 346.38C397.529 346.32 397.529 346.29 397.529 346.23C397.529 341.94 394.619 338.34 390.659 337.35C389.849 335.7 389.429 334.44 389.249 333.78C392.849 331.65 396.539 329.43 400.289 327.27ZM395.759 346.26C395.759 350.31 392.489 353.61 388.499 353.61C384.479 353.61 381.239 350.31 381.239 346.26C381.239 345.6 381.329 344.94 381.509 344.31C381.629 344.13 381.689 343.95 381.689 343.74C382.709 340.92 385.379 338.91 388.499 338.91C392.489 338.91 395.759 342.21 395.759 346.26ZM360.629 301.38C361.019 300.9 361.469 300.66 362.009 300.6C365.189 300.3 374.519 308.04 379.799 313.14C385.139 319.47 389.729 325.26 392.759 329.61C381.839 336.15 371.879 342.54 366.059 346.47C364.949 333.09 362.459 321.12 359.459 310.83C359.189 308.67 358.979 303.42 360.629 301.38ZM301.379 251.34L300.539 253.83C300.389 254.31 300.629 254.82 301.109 254.97C301.199 255.03 301.289 255.03 301.379 255.03C301.739 255.03 302.099 254.79 302.219 254.4L316.199 212.55C316.349 212.07 316.109 211.56 315.629 211.41C315.539 211.38 315.479 211.38 315.389 211.38C312.929 210.99 311.249 209.76 310.559 207.81C309.689 205.44 310.409 202.2 312.269 200.1C312.989 199.29 314.489 197.97 316.439 198.42C319.949 199.2 321.179 202.14 321.569 204.45C321.749 205.44 322.379 206.31 323.279 206.73C324.179 207.18 325.229 207.15 326.099 206.67C332.939 202.95 339.479 196.35 344.009 188.58C347.189 183.12 349.079 177.66 349.589 172.65C353.789 178.44 357.689 186.12 360.239 193.74C360.239 193.8 360.269 193.86 360.269 193.95C360.899 195.69 363.179 198.78 367.409 197.97C368.639 197.73 369.509 197.94 369.989 198.6C370.379 199.17 370.409 199.95 370.169 200.37C369.869 200.94 368.939 201.87 367.619 202.11C366.389 202.35 365.159 201.9 363.899 200.82C363.539 200.49 362.969 200.52 362.639 200.91C362.519 201.03 362.459 201.18 362.429 201.33C362.369 201.48 362.339 201.69 362.369 201.87C365.099 215.82 360.929 221.67 356.939 224.16C345.179 231.45 332.549 222.87 332.429 222.78C332.009 222.48 331.439 222.57 331.169 222.99C330.929 223.35 330.929 223.8 331.199 224.1C331.709 224.88 337.499 234.06 336.269 246.99V247.02L332.939 260.67V260.7C332.939 260.76 332.909 260.79 332.909 260.85C332.909 260.88 332.909 260.91 332.909 260.91C332.909 260.97 332.909 261.03 332.939 261.09C332.939 261.09 332.939 261.09 332.939 261.12C332.969 261.27 333.059 261.42 333.149 261.54C333.179 261.57 333.239 261.63 333.359 261.75C334.169 262.71 336.869 266.19 340.409 271.92C330.119 277.59 319.889 279.06 310.049 276.21C292.229 271.08 280.619 253.35 277.859 248.73C290.699 249.24 299.849 251.04 301.379 251.34ZM275.759 248.64C276.299 249.63 279.329 254.91 284.579 260.91C289.859 266.94 298.499 274.8 309.569 277.98C313.019 278.97 316.499 279.48 320.009 279.48C327.029 279.48 334.169 277.5 341.369 273.45C342.389 275.16 343.469 277.05 344.579 279.12C343.439 279.9 338.849 282.78 331.829 284.49C324.359 286.29 312.539 287.07 298.559 280.47C285.419 274.29 277.889 265.71 273.869 259.59C270.599 254.58 269.069 250.38 268.529 248.61C271.049 248.58 273.449 248.58 275.759 248.64ZM166.709 411.63C159.959 398.49 156.059 384.36 155.129 369.72C154.259 356.13 155.939 342.39 160.079 328.89C166.949 306.51 180.299 286.32 197.309 272.13C202.889 280.32 197.939 301.35 206.399 300.36C215.699 299.25 206.969 285.96 212.849 266.1C213.449 263.85 215.309 261.63 216.029 259.95C222.359 256.86 229.259 254.37 236.669 252.54C245.939 250.23 256.049 248.94 266.699 248.64C267.149 250.17 268.649 254.82 272.369 260.52C276.479 266.85 284.279 275.73 297.839 282.12C306.599 286.23 314.549 287.58 321.179 287.58C325.529 287.58 329.339 287.01 332.369 286.2C339.389 284.52 343.979 281.73 345.449 280.74C346.019 281.85 346.619 282.99 347.189 284.16C350.579 291.03 354.389 300.09 357.629 311.1C357.659 311.22 357.689 311.34 357.689 311.43C357.719 311.55 357.749 311.67 357.809 311.76C360.809 322.14 363.269 334.17 364.319 347.67C363.899 347.94 363.509 348.21 363.179 348.45C361.889 349.35 360.389 350.43 358.799 351.57C351.089 357.12 339.419 365.49 326.759 371.25C317.039 375.66 308.129 377.88 300.149 377.88C295.859 377.88 291.839 377.25 288.089 375.96C276.929 372.12 270.779 363.21 269.849 349.5C269.159 339.12 271.859 329.76 271.889 329.67C272.039 329.19 271.769 328.71 271.289 328.56C270.809 328.41 270.329 328.68 270.179 329.16C270.059 329.55 267.359 338.88 268.079 349.56C268.319 353.28 268.979 356.7 269.999 359.79C267.149 359.64 257.609 359.31 245.969 361.02C233.129 362.88 215.099 367.62 201.899 379.71C183.299 396.75 175.139 417.42 173.159 423.06C170.909 419.43 168.749 415.62 166.709 411.63ZM328.169 436.11C325.259 438.54 322.139 441.09 318.869 443.64C305.399 454.11 293.039 461.73 282.299 466.32C279.809 467.31 277.379 468.15 275.009 468.78C255.539 474.06 235.769 472.59 217.919 464.49C208.019 459.99 198.779 453.48 190.469 445.14C186.269 440.94 182.309 436.23 178.559 431.07C178.769 430.14 179.909 425.31 183.299 418.02C186.809 410.49 193.469 398.7 205.319 385.47C217.079 372.33 234.239 366.57 246.539 364.02C259.229 361.41 269.519 361.62 270.659 361.65C272.039 365.13 273.959 368.16 276.389 370.68C269.549 377.82 248.909 376.68 250.349 385.11C252.299 393.69 263.549 388.77 283.199 382.26C288.659 380.46 294.089 379.74 299.069 379.65C299.459 379.65 299.819 379.68 300.209 379.68C308.429 379.68 317.609 377.4 327.509 372.87C340.349 367.02 352.079 358.59 359.849 353.01C361.439 351.87 362.909 350.82 364.199 349.92C367.079 347.94 372.209 344.52 378.539 340.5C378.809 341.28 379.199 342.42 379.769 343.77C379.559 344.55 379.439 345.39 379.439 346.26C379.439 351.03 383.099 354.96 387.719 355.38C390.449 357.81 393.479 359.34 396.779 359.94C389.039 369.48 381.449 379.62 377.129 385.41C368.789 396.66 349.679 417.78 328.169 436.11ZM366.209 434.64C360.329 429.99 360.629 416.82 361.169 410.28C361.259 409.8 361.319 409.38 361.409 408.93C361.619 407.97 361.859 407.01 362.069 406.08C369.149 398.43 374.879 391.59 378.629 386.52C381.419 382.77 385.559 377.19 390.269 371.13C388.619 374.76 386.639 379.53 384.719 385.41C381.059 396.63 377.039 413.79 376.919 435.09C372.389 436.83 368.789 436.68 366.209 434.64ZM523.139 310.77C521.759 312.06 519.839 313.44 517.979 314.79C515.789 316.38 513.899 317.76 513.059 318.81C512.699 319.26 511.919 320.7 510.029 324.21C501.179 340.74 474.239 391.11 442.889 416.4C426.389 429.69 408.479 438.69 389.639 443.13C386.099 443.97 382.529 444.63 378.989 445.14L378.719 437.79C378.479 415.5 382.619 397.59 386.369 386.04C390.929 372 395.909 364.05 395.969 363.96C396.029 363.87 396.059 363.81 396.089 363.72C398.489 360.72 400.919 357.75 403.289 354.93C405.149 352.74 406.769 350.85 408.239 349.26C412.379 353.52 416.489 356.91 420.539 359.37C412.949 362.16 402.749 362.91 403.679 368.55C405.389 376.05 415.229 371.73 432.419 366.06C435.029 365.19 437.639 364.62 440.189 364.26C440.189 364.26 440.039 364.26 439.799 364.23C440.519 364.14 441.209 364.02 441.899 363.87C451.769 361.74 464.549 349.83 473.519 340.2C483.509 329.49 491.819 318.33 492.929 315.63C493.889 313.26 494.999 308.97 496.049 304.8C496.919 301.41 497.969 297.27 498.569 296.01C498.659 296.07 498.719 296.16 498.809 296.25C499.439 297.06 500.759 300.06 498.599 310.11C498.479 310.62 498.809 311.1 499.289 311.19C499.799 311.31 500.279 310.98 500.369 310.5C500.399 310.35 500.429 310.23 500.459 310.11C500.549 310.08 500.609 310.02 500.669 309.96C500.699 309.9 506.069 304.71 508.049 302.85C509.309 301.68 510.479 300.54 511.499 299.55C514.919 296.25 517.859 293.4 518.819 294.03C518.819 294.24 518.639 295.2 516.449 298.02C514.529 300.51 511.499 303.93 507.179 308.4C506.849 308.76 506.849 309.33 507.209 309.66C507.569 309.99 508.139 309.99 508.469 309.63C512.879 305.04 517.049 300.48 519.149 297.27C519.269 297.24 519.419 297.18 519.539 297.09C520.139 296.58 521.129 296.07 521.459 296.19C521.489 296.19 521.549 296.28 521.609 296.49C521.999 298.14 518.159 302.82 515.609 305.94C512.309 309.96 510.479 312.3 510.689 313.8C510.749 314.22 510.959 314.58 511.319 314.82C512.909 315.87 515.459 314.28 519.539 311.55C521.189 310.44 523.949 308.61 524.849 308.55C524.819 308.79 524.579 309.45 523.139 310.77Z" fill="#1A1A1A"/>
<path d="M331.739 470.34C339.719 459.9 346.319 447.99 351.539 434.82C352.649 431.88 353.849 428.58 354.989 425.28C356.129 421.77 357.209 418.2 358.169 414.54C358.619 412.77 359.069 411 359.489 409.23C359.489 409.08 359.519 408.93 359.519 408.81C356.399 412.14 353.039 415.56 349.499 419.07C348.539 434.28 337.289 440.22 329.849 444.15C326.969 445.68 327.299 448.32 328.079 452.49C328.889 456.75 329.879 462.03 324.839 465.93C321.209 468.75 317.879 469.08 314.909 469.38C310.499 469.83 306.659 470.19 302.489 479.01C297.209 490.2 291.059 492.6 287.909 493.05C291.359 495.99 294.749 498.75 297.989 501.3C310.949 493.14 322.289 482.7 331.739 470.34Z" fill="white"/>
<path d="M251.099 453.3C246.149 453.3 241.409 452.52 237.209 450.99C236.549 450.75 235.949 450.51 235.379 450.27C232.139 448.89 231.179 444.72 233.489 442.05C234.989 440.31 237.419 439.74 239.549 440.64C240.059 440.88 240.659 441.09 241.289 441.33C245.819 442.86 251.009 443.22 256.679 442.44C259.559 442.02 262.199 444.03 262.619 446.91C263.039 449.79 261.029 452.43 258.149 452.85C255.749 453.15 253.379 453.3 251.099 453.3Z" fill="#1A1A1A"/>
<path d="M416.099 424.2C413.879 424.2 411.809 422.79 411.089 420.57C410.189 417.81 411.719 414.87 414.449 413.97C414.599 413.91 422.759 411.15 429.449 404.46C431.489 402.42 434.819 402.42 436.859 404.46C438.899 406.5 438.899 409.83 436.859 411.87C428.249 420.48 418.079 423.81 417.659 423.96C417.179 424.11 416.639 424.2 416.099 424.2Z" fill="#1A1A1A"/>
<path d="M159.179 289.26C158.909 289.26 158.639 289.14 158.459 288.9C144.329 269.46 123.359 255.96 123.149 255.84C122.729 255.57 122.609 255.03 122.879 254.61C123.149 254.19 123.689 254.07 124.109 254.34C124.319 254.49 145.559 268.17 159.899 287.88C160.199 288.27 160.109 288.84 159.689 289.14C159.539 289.2 159.359 289.26 159.179 289.26Z" fill="white"/>
<path d="M89.5493 288.21C95.3317 288.21 100.019 283.522 100.019 277.74C100.019 271.958 95.3317 267.27 89.5493 267.27C83.7669 267.27 79.0793 271.958 79.0793 277.74C79.0793 283.522 83.7669 288.21 89.5493 288.21Z" fill="#1A1A1A"/>
<path d="M89.5492 289.53C83.0692 289.53 77.7892 284.25 77.7892 277.77C77.7892 271.29 83.0692 266.01 89.5492 266.01C96.0292 266.01 101.309 271.29 101.309 277.77C101.309 284.25 96.0292 289.53 89.5492 289.53ZM89.5492 268.59C84.5092 268.59 80.3992 272.7 80.3992 277.74C80.3992 282.78 84.5092 286.89 89.5492 286.89C94.5892 286.89 98.6992 282.78 98.6992 277.74C98.6992 272.7 94.5892 268.59 89.5492 268.59Z" fill="#1A1A1A"/>
<path d="M158.129 263.85C160.631 263.85 162.659 261.822 162.659 259.32C162.659 256.818 160.631 254.79 158.129 254.79C155.627 254.79 153.599 256.818 153.599 259.32C153.599 261.822 155.627 263.85 158.129 263.85Z" fill="#1A1A1A"/>
<path d="M158.129 264.42C155.309 264.42 153.029 262.14 153.029 259.32C153.029 256.5 155.309 254.22 158.129 254.22C160.949 254.22 163.229 256.5 163.229 259.32C163.229 262.14 160.919 264.42 158.129 264.42ZM158.129 255.36C155.939 255.36 154.169 257.13 154.169 259.32C154.169 261.51 155.939 263.28 158.129 263.28C160.319 263.28 162.089 261.51 162.089 259.32C162.089 257.13 160.289 255.36 158.129 255.36Z" fill="#1A1A1A"/>
<path d="M400.109 430.74C397.769 430.74 395.639 429.18 395.039 426.81C394.319 423.99 395.999 421.14 398.789 420.42L400.919 419.88C403.739 419.16 406.589 420.84 407.309 423.63C408.029 426.45 406.349 429.3 403.559 430.02L401.429 430.56C400.979 430.71 400.529 430.74 400.109 430.74Z" fill="#1A1A1A"/>
<path d="M187.799 100.5C191.61 100.5 194.699 97.4107 194.699 93.5999C194.699 89.7892 191.61 86.7 187.799 86.7C183.988 86.7 180.899 89.7892 180.899 93.5999C180.899 97.4107 183.988 100.5 187.799 100.5Z" fill="#FECE2F"/>
<path d="M204.629 90.8098C206.501 90.8098 208.019 89.292 208.019 87.4198C208.019 85.5475 206.501 84.0298 204.629 84.0298C202.757 84.0298 201.239 85.5475 201.239 87.4198C201.239 89.292 202.757 90.8098 204.629 90.8098Z" fill="#FECE2F"/>
<path d="M201.929 492.63C195.029 492.45 186.779 489.54 177.389 484.02C170.429 479.94 165.389 475.83 165.359 475.8C164.969 475.5 164.909 474.93 165.239 474.54C165.539 474.15 166.109 474.09 166.499 474.42C166.709 474.57 186.239 490.44 201.959 490.86C202.469 490.86 202.859 491.28 202.829 491.79C202.829 492.27 202.409 492.63 201.929 492.63Z" fill="#1A1A1A"/>
<path d="M343.469 483.51C339.419 478.41 335.489 474.18 333.059 471.63L331.949 473.07C338.249 479.58 354.659 497.76 354.899 510.03C354.899 510.51 355.319 510.9 355.799 510.9C356.309 510.9 356.699 510.48 356.669 510C356.549 503.34 352.109 494.43 343.469 483.51Z" fill="white"/>
<path d="M535.889 96.6898C533.189 94.1998 526.889 92.7598 521.699 96.0598C516.509 99.3598 510.809 103.62 504.659 111.03C504.659 111.03 492.269 103.59 485.189 92.4898C478.109 81.3898 475.919 78.1498 471.419 68.0698C471.419 68.0698 463.589 88.7698 471.149 107.07C471.149 107.07 444.269 92.1298 436.709 84.9598C436.709 84.9598 433.829 97.4998 437.279 110.4L447.419 112.14L439.559 115.74C439.559 115.74 444.089 126.45 454.379 132.57C464.669 138.69 474.119 138.15 474.119 138.15L439.259 161.25C439.259 161.25 431.159 165.03 433.289 167.91C435.449 170.76 443.039 179.49 455.999 175.29L477.269 154.68C477.269 154.68 493.379 154.05 500.489 152.67C507.599 151.26 512.879 146.4 516.329 140.49C519.749 134.58 522.959 128.58 522.869 124.38C522.779 120.18 525.899 112.38 528.509 111.39C531.119 110.4 537.209 109.29 537.809 103.71C538.409 98.1298 535.889 96.6898 535.889 96.6898Z" fill="white"/>
<path d="M456.089 189.84L519.689 183.96L520.829 220.26L457.229 225.84L456.089 189.84Z" fill="#FECE2F"/>
<path d="M507.329 185.1L456.089 189.84L456.689 209.04C477.659 210.12 497.969 193.86 507.329 185.1Z" fill="white"/>
<path d="M521.129 221.1C521.159 221.1 521.219 221.07 521.249 221.04C521.249 221.04 521.249 221.04 521.279 221.04C521.369 221.01 521.429 220.95 521.519 220.89C521.729 220.68 521.819 220.38 521.759 220.11L520.619 184.11C520.649 183.99 520.619 183.87 520.589 183.75C520.559 183.57 520.439 183.39 520.319 183.27C520.289 183.24 520.259 183.24 520.229 183.21L492.809 157.11C492.449 156.78 491.939 156.78 491.579 157.08L455.609 189.09C455.579 189.12 455.549 189.15 455.489 189.18C455.459 189.21 455.459 189.21 455.429 189.24C455.279 189.42 455.189 189.63 455.189 189.87L456.329 225.87C456.329 225.9 456.329 225.93 456.329 225.96C456.329 226.08 456.389 226.17 456.449 226.26L456.479 226.29C456.509 226.32 456.509 226.35 456.539 226.38C456.599 226.44 456.629 226.5 456.689 226.56C456.809 226.65 456.929 226.71 457.079 226.71C457.139 226.71 457.169 226.74 457.229 226.74C457.259 226.74 457.259 226.74 457.319 226.74L520.919 221.16C520.949 221.16 520.979 221.16 520.979 221.16C521.009 221.16 521.009 221.16 521.039 221.16C521.069 221.13 521.099 221.1 521.129 221.1ZM486.179 207.99C484.739 207 480.539 204.15 475.889 201.42C475.649 201.3 475.439 201.15 475.199 201.03L458.759 190.53L516.659 185.16L486.179 207.99ZM457.499 205.86C457.529 205.77 457.529 205.68 457.529 205.59L457.469 204.06C457.469 203.28 457.499 202.29 457.619 201.27C457.799 199.8 458.339 197.31 459.869 197.04C462.569 196.56 468.149 199.11 473.579 202.17L458.009 223.23L457.499 205.86ZM475.139 203.1L485.699 209.85C485.849 209.94 485.999 210 486.179 210C486.359 210 486.539 209.94 486.689 209.85L498.779 200.76L518.729 219.51L459.119 224.76L475.139 203.1ZM500.429 199.86L505.919 195.66C506.309 195.39 506.729 195.09 507.149 194.82C511.799 191.79 515.429 190.53 517.319 191.25C518.279 191.58 518.849 192.48 519.059 193.95C519.059 194.01 519.089 194.04 519.089 194.1L519.839 218.13L500.429 199.86ZM492.119 158.97L517.619 183.24L458.789 188.7L492.119 158.97Z" fill="#1A1A1A"/>
<path d="M529.799 99.3C528.269 99.3 527.039 100.53 527.039 102.06C527.039 103.59 528.269 104.82 529.799 104.82C531.329 104.82 532.559 103.59 532.559 102.06C532.559 100.53 531.329 99.3 529.799 99.3Z" fill="#1A1A1A"/>
<path d="M544.589 106.47L538.649 101.13C538.469 99.48 537.869 97.98 536.879 96.75C534.539 93.84 530.339 92.76 525.029 93.66C517.829 94.92 509.339 103.59 503.969 109.98L502.739 109.26C497.789 105.78 481.409 92.67 472.019 67.08C471.899 66.72 471.569 66.48 471.179 66.48C470.789 66.48 470.459 66.72 470.339 67.08C470.249 67.32 468.299 72.9 467.219 80.64C466.319 87.33 465.959 96.81 469.079 105.3C452.489 96.09 437.489 84.54 437.249 84.36C437.009 84.15 436.709 84.12 436.409 84.21C436.139 84.3 435.899 84.54 435.839 84.84C435.719 85.32 432.989 96.9 436.409 110.7C436.499 111.03 436.769 111.3 437.129 111.36L444.809 112.62L439.229 114.96C438.779 115.14 438.569 115.62 438.719 116.07C440.519 121.32 445.439 126.96 449.279 130.02C457.169 136.23 465.059 138.42 471.359 138.93L433.559 164.1C432.179 165 431.729 166.83 432.539 168.27C435.149 172.98 439.889 175.95 446.189 176.91C447.809 177.15 449.309 177.24 450.599 177.24C452.729 177.24 454.289 177.03 454.769 176.94C454.919 176.94 455.099 176.91 455.249 176.82L456.509 176.01C465.029 170.7 472.169 163.8 477.809 155.52C478.379 155.52 478.949 155.52 479.609 155.55C482.909 155.55 487.109 155.43 491.459 155.01L491.249 156.36C489.779 156.36 488.609 155.82 488.579 155.79C488.129 155.55 487.589 155.73 487.379 156.18C487.139 156.63 487.319 157.17 487.769 157.38C487.829 157.41 488.729 157.83 490.019 158.04C487.889 158.82 485.789 157.83 485.669 157.77C485.219 157.53 484.679 157.71 484.469 158.16C484.229 158.61 484.409 159.15 484.859 159.36C484.949 159.42 486.419 160.14 488.309 160.14C489.719 160.14 491.339 159.75 492.749 158.4C492.899 158.28 492.989 158.13 493.019 157.95L495.779 155.04C495.959 154.86 496.109 154.62 496.229 154.38C500.879 153.6 505.289 152.37 508.379 150.36C518.879 143.67 522.839 128.58 525.479 118.62C526.259 115.59 527.429 113.94 528.749 112.89C528.839 112.86 528.869 112.83 528.869 112.83C528.989 112.77 529.079 112.68 529.169 112.59C530.129 111.96 531.179 111.57 532.229 111.18C534.299 110.4 536.429 109.62 537.689 106.92L543.839 108.06C543.869 108.06 543.929 108.06 543.989 108.06C544.319 108.06 544.619 107.85 544.829 107.58C544.979 107.16 544.889 106.74 544.589 106.47ZM471.539 106.44C467.759 97.89 468.119 87.81 469.049 80.88C469.679 76.32 470.639 72.45 471.329 70.11C477.209 84.9 485.279 95.22 491.129 101.37C493.589 103.95 495.869 106.02 497.759 107.61C496.109 110.82 493.049 112.56 488.699 112.65C485.459 112.74 482.609 111.87 482.249 111.78C478.739 110.28 475.139 108.51 471.599 106.62C471.599 106.56 471.569 106.5 471.539 106.44ZM536.159 105.84C535.229 108.12 533.639 108.72 531.599 109.47C530.459 109.89 529.199 110.37 527.969 111.21C527.759 111.3 527.549 111.39 527.339 111.51C525.359 112.5 519.359 115.53 515.159 118.11C511.469 120.42 511.379 122.55 511.679 123.63C512.009 124.83 513.059 125.76 514.169 125.79C514.949 125.82 515.939 125.61 517.139 125.16C517.949 124.83 518.789 124.95 519.509 125.43C520.199 125.91 520.619 126.66 520.619 127.5V128.79V128.82C517.979 136.56 514.049 144.54 507.419 148.8C503.429 151.35 496.319 152.94 486.779 153.51C480.119 153.87 474.389 153.6 473.459 153.54C473.279 153.51 473.129 153.51 472.949 153.57C472.919 153.57 472.889 153.6 472.859 153.6C472.709 153.66 472.589 153.78 472.499 153.93L468.689 158.37L454.319 175.11C452.159 175.41 439.349 176.7 434.129 167.34C433.799 166.74 433.979 165.93 434.579 165.54L457.829 150.03C458.549 151.29 459.599 152.07 461.009 152.34C461.399 152.43 461.819 152.46 462.269 152.46C470.579 152.46 486.239 138.45 488.489 136.41C488.519 136.41 488.519 136.41 488.519 136.38C488.969 136.17 489.179 135.63 488.969 135.18C488.909 135.06 488.819 134.94 488.699 134.85C488.429 134.61 488.009 134.55 487.679 134.73C487.529 134.82 487.349 134.88 487.169 134.97C486.539 135.21 485.399 135.6 483.869 135.99C480.059 136.83 475.469 137.07 474.359 137.13C474.209 137.1 474.089 137.1 473.939 137.13C468.029 137.04 460.049 135.48 451.949 129.63L458.579 128.25C459.059 128.13 459.359 127.65 459.269 127.17C459.149 126.69 458.669 126.39 458.189 126.48L450.059 128.19C448.979 127.29 447.809 126.18 446.669 124.95L463.439 121.05C463.919 120.93 464.219 120.45 464.099 119.97C463.979 119.49 463.499 119.19 463.019 119.31L445.319 123.42C443.459 121.17 441.779 118.65 440.759 116.19L448.469 112.98C448.829 112.83 449.069 112.44 449.009 112.05C448.949 111.66 448.649 111.33 448.259 111.27L438.059 109.59C435.629 99.15 436.769 89.91 437.339 86.52C440.369 88.8 449.009 95.16 459.269 101.49C468.209 107.01 476.159 111.18 483.029 114C491.939 117.78 496.979 118.17 498.749 118.2C498.779 118.2 498.809 118.2 498.839 118.2C499.019 118.2 499.169 118.23 499.349 118.23C499.769 118.23 500.129 117.96 500.249 117.57C501.899 115.29 515.309 97.11 525.329 95.37C529.979 94.56 533.579 95.4 535.469 97.8C537.119 99.9 537.359 102.96 536.159 105.84Z" fill="#1A1A1A"/>
</svg>
