<svg width="185" height="58" viewBox="0 0 185 58" fill="none" xmlns="http://www.w3.org/2000/svg">
<path d="M12 7.20289C4 7.20289 1.16667 3.55081 0 1.22676V24.1353V28.8915V58H10.5H18.5H162.5H165H175.5H185V50.0318V43.0597V28.8915V15.1711V4.98701C185 4.98701 180.5 -1.26331 173 0.230737C167.731 1.28044 171.5 7.20289 157 7.20289C142.5 7.20289 146.5 0.230737 135 0.230737C123.5 0.230737 127.5 7.20289 117.5 7.20289C107.5 7.20289 106.5 0.230737 98 0.230737C89.5 0.230737 90 7.20289 82.5 7.20289C75 7.20289 73 0.230737 64 0.230737C55 0.230737 58 7.20289 50 7.20289C42 7.20289 35.5 0.230737 28.5 0.230737C21.5 0.230737 22 7.20289 12 7.20289Z" fill="#FFD12A"/>
</svg>
